<?xml version="1.0" encoding="utf-8"?>
<!-- Generator: Adobe Illustrator 17.1.0, SVG Export Plug-In . SVG Version: 6.00 Build 0)  -->
<!DOCTYPE svg PUBLIC "-//W3C//DTD SVG 1.1//EN" "http://www.w3.org/Graphics/SVG/1.1/DTD/svg11.dtd" [
	<!ENTITY ns_extend "http://ns.adobe.com/Extensibility/1.0/">
	<!ENTITY ns_ai "http://ns.adobe.com/AdobeIllustrator/10.0/">
	<!ENTITY ns_graphs "http://ns.adobe.com/Graphs/1.0/">
	<!ENTITY ns_vars "http://ns.adobe.com/Variables/1.0/">
	<!ENTITY ns_imrep "http://ns.adobe.com/ImageReplacement/1.0/">
	<!ENTITY ns_sfw "http://ns.adobe.com/SaveForWeb/1.0/">
	<!ENTITY ns_custom "http://ns.adobe.com/GenericCustomNamespace/1.0/">
	<!ENTITY ns_adobe_xpath "http://ns.adobe.com/XPath/1.0/">
]>
<svg version="1.1" id="Layer_1" xmlns:x="&ns_extend;" xmlns:i="&ns_ai;" xmlns:graph="&ns_graphs;"
	 xmlns="http://www.w3.org/2000/svg" xmlns:xlink="http://www.w3.org/1999/xlink" x="0px" y="0px" viewBox="0 0 500 500"
	 enable-background="new 0 0 500 500" xml:space="preserve">
<metadata>
	<sfw  xmlns="&ns_sfw;">
		<slices></slices>
		<sliceSourceBounds  width="301.2" height="400" bottomLeftOrigin="true" x="99.4" y="50"></sliceSourceBounds>
		<optimizationSettings>
			<targetSettings  fileFormat="PNG24Format" targetSettingsID="0">
				<PNG24Format  transparency="true" interlaced="false" matteColor="#FFFFFF" noMatteColor="false" filtered="false">
					</PNG24Format>
			</targetSettings>
		</optimizationSettings>
	</sfw>
</metadata>
<g id="фон">
</g>
<g id="контент">
	<g>
		<g>
			<path fill="#FFFFFF" d="M99.4,387.9l41.2-48.8c19.4,16.8,38.8,29.4,58.3,37.9c19.5,8.4,41,12.6,64.3,12.6
				c21.2,0,37.9-4.5,50.3-13.4c12.4-8.9,18.6-21.1,18.6-36.5c0-9.8-2.3-17.9-6.8-24.3c-4.5-6.4-13.2-12.6-25.9-18.5
				c-12.7-5.9-31.1-11.6-54.9-17.2c-22.4-5.3-41-10.7-55.6-16.4c-14.7-5.7-27.9-13-39.8-21.8c-11.8-8.9-20.5-19.7-26.1-32.4
				c-5.5-12.7-8.3-28.1-8.3-46c0-33.3,12.4-60.4,37.3-81.4C177,60.5,208.9,50,247.8,50c53.7,0,100.8,16.3,141.1,48.8l-36.6,51.8
				c-36-26.8-71.2-40.2-105.6-40.2c-19.5,0-35,4.4-46.4,13.3c-11.4,8.9-17.1,20.2-17.1,33.9c0,10.3,2.6,18.8,7.7,25.5
				c5.2,6.7,14.3,12.8,27.3,18.5c13,5.6,32.1,11.4,57.3,17.4c43.2,10.5,74.9,24.4,95,41.7c20.1,17.3,30.1,41.6,30.1,73.1
				c0,35.8-12.8,64.1-38.4,84.9c-25.6,20.8-59.1,31.2-100.5,31.2C199.8,450,145.7,429.3,99.4,387.9z"/>
		</g>
	</g>
</g>
<g id="Линейка" display="none">
</g>
<g id="Направляющие" display="none">
</g>
</svg>
