<?xml version="1.0" encoding="utf-8"?>
<!-- Generator: Adobe Illustrator 17.1.0, SVG Export Plug-In . SVG Version: 6.00 Build 0)  -->
<!DOCTYPE svg PUBLIC "-//W3C//DTD SVG 1.1//EN" "http://www.w3.org/Graphics/SVG/1.1/DTD/svg11.dtd" [
	<!ENTITY ns_extend "http://ns.adobe.com/Extensibility/1.0/">
	<!ENTITY ns_ai "http://ns.adobe.com/AdobeIllustrator/10.0/">
	<!ENTITY ns_graphs "http://ns.adobe.com/Graphs/1.0/">
	<!ENTITY ns_vars "http://ns.adobe.com/Variables/1.0/">
	<!ENTITY ns_imrep "http://ns.adobe.com/ImageReplacement/1.0/">
	<!ENTITY ns_sfw "http://ns.adobe.com/SaveForWeb/1.0/">
	<!ENTITY ns_custom "http://ns.adobe.com/GenericCustomNamespace/1.0/">
	<!ENTITY ns_adobe_xpath "http://ns.adobe.com/XPath/1.0/">
]>
<svg version="1.1" id="Layer_1" xmlns:x="&ns_extend;" xmlns:i="&ns_ai;" xmlns:graph="&ns_graphs;"
	 xmlns="http://www.w3.org/2000/svg" xmlns:xlink="http://www.w3.org/1999/xlink" x="0px" y="0px" viewBox="0 0 500 500"
	 enable-background="new 0 0 500 500" xml:space="preserve">
<metadata>
	<sfw  xmlns="&ns_sfw;">
		<slices></slices>
		<sliceSourceBounds  width="432.9" height="432.9" bottomLeftOrigin="true" x="33.6" y="33.6"></sliceSourceBounds>
		<optimizationSettings>
			<targetSettings  fileFormat="PNG24Format" targetSettingsID="0">
				<PNG24Format  transparency="true" interlaced="false" matteColor="#FFFFFF" noMatteColor="false" filtered="false">
					</PNG24Format>
			</targetSettings>
		</optimizationSettings>
	</sfw>
</metadata>
<g id="фон">
</g>
<g id="Линейка" display="none">
</g>
<g id="Направляющие" display="none">
</g>
<g>
	<path fill="#FFFFFF" d="M243.5,301.5l-93.6,93.6l40.6,40.5c3.4,3.4,5.4,7.9,5.4,12.7c0,9.9-8.1,18-18.1,18H51.7
		c-9.8,0-18-8.1-18-18V322.1c0-9.9,8.1-18,18-18c4.8,0,9.3,2,12.7,5.4l40.6,40.6l93.5-93.6c1.7-1.7,4.3-2.9,6.5-2.9s4.8,1.1,6.5,2.9
		l32.1,32.1c1.7,1.7,2.9,4.3,2.9,6.5C246.4,297.3,245.2,299.9,243.5,301.5z M466.4,177.9c0,9.9-8.1,18.1-18,18.1
		c-4.8,0-9.3-1.9-12.6-5.4L395.1,150l-93.6,93.5c-1.7,1.7-4.3,2.9-6.5,2.9s-4.8-1.1-6.5-2.9l-32-32.1c-1.7-1.7-2.9-4.3-2.9-6.5
		c0-2.2,1.1-4.8,2.9-6.4l93.5-93.6l-40.5-40.5c-3.4-3.4-5.4-7.9-5.4-12.7c0-9.9,8.1-18,18-18h126.3c9.9,0,18,8.2,18,18L466.4,177.9
		L466.4,177.9z"/>
</g>
</svg>
